\relax 
\providecommand\hyper@newdestlabel[2]{}
\providecommand\HyperFirstAtBeginDocument{\AtBeginDocument}
\HyperFirstAtBeginDocument{\ifx\hyper@anchor\@undefined
\global\let\oldcontentsline\contentsline
\gdef\contentsline#1#2#3#4{\oldcontentsline{#1}{#2}{#3}}
\global\let\oldnewlabel\newlabel
\gdef\newlabel#1#2{\newlabelxx{#1}#2}
\gdef\newlabelxx#1#2#3#4#5#6{\oldnewlabel{#1}{{#2}{#3}}}
\AtEndDocument{\ifx\hyper@anchor\@undefined
\let\contentsline\oldcontentsline
\let\newlabel\oldnewlabel
\fi}
\fi}
\global\let\hyper@last\relax 
\gdef\HyperFirstAtBeginDocument#1{#1}
\providecommand\HyField@AuxAddToFields[1]{}
\providecommand\HyField@AuxAddToCoFields[2]{}
\@writefile{toc}{\contentsline {section}{Education}{1}{section*.1}}
\@writefile{toc}{\contentsline {subsection}{SUNY College of Technology at Alfred State}{1}{subsection*.2}}
\@writefile{toc}{\contentsline {subsubsection}{Bachelor's of Technology Degree in Interdisciplinary Studies}{1}{subsubsection*.3}}
\@writefile{toc}{\contentsline {subsubsection}{Associate's of Computer Information Systems}{1}{subsubsection*.4}}
\@writefile{toc}{\contentsline {section}{Skills}{1}{section*.5}}
\@writefile{toc}{\contentsline {subsection}{Languages}{1}{subsection*.6}}
\@writefile{toc}{\contentsline {subsection}{OS/Software}{1}{subsection*.7}}
\@writefile{toc}{\contentsline {subsection}{Miscellaneous}{1}{subsection*.8}}
\@writefile{toc}{\contentsline {section}{Experience}{1}{section*.9}}
\@writefile{toc}{\contentsline {subsection}{SUNY College of Technology at Alfred State}{1}{subsection*.10}}
\@writefile{toc}{\contentsline {subsubsection}{Information Technology Tutor}{1}{subsubsection*.11}}
\@writefile{toc}{\contentsline {subsection}{Advance 2000}{1}{subsection*.12}}
\@writefile{toc}{\contentsline {subsubsection}{Software Development Intern}{1}{subsubsection*.13}}
\@writefile{toc}{\contentsline {section}{Projects}{1}{section*.14}}
\@writefile{toc}{\contentsline {subsection}{\href  {https://gitlab.com/norpluasaurus/Capstone-Group-Project} {Pin\{IT\}erest}}{1}{subsection*.15}}
\@writefile{toc}{\contentsline {subsection}{\href  {https://gitlab.com/norpluasaurus/literate-fibonacci}{Literate Fibonacci}}{1}{subsection*.16}}
\@writefile{toc}{\contentsline {subsection}{\href  {noracook.io}{noracook.io}}{1}{subsection*.17}}
